\BOOKMARK [0][-]{MUTESCHAPTER.1.0}{\376\377\000A\000g\000r\000a\000d\000e\000c\000i\000m\000e\000n\000t\000o}{}% 1
\BOOKMARK [0][-]{MUTESCHAPTER.2.0}{\376\377\000R\000e\000s\000u\000m\000o}{}% 2
\BOOKMARK [0][-]{MUTESCHAPTER.3.0}{\376\377\000A\000b\000s\000t\000r\000a\000c\000t}{}% 3
\BOOKMARK [0][-]{MUTESCHAPTER.4.0}{\376\377\000L\000i\000s\000t\000a\000\040\000d\000e\000\040\000F\000i\000g\000u\000r\000a\000s}{}% 4
\BOOKMARK [0][-]{MUTESCHAPTER.5.0}{\376\377\000L\000i\000s\000t\000a\000\040\000d\000e\000\040\000T\000a\000b\000e\000l\000a\000s}{}% 5
\BOOKMARK [0][-]{MUTESCHAPTER.6.0}{\376\377\000L\000i\000s\000t\000a\000\040\000d\000e\000\040\000A\000b\000r\000e\000v\000i\000a\000t\000u\000r\000a\000s\000\040\000e\000\040\000S\000i\000g\000l\000a\000s}{}% 6
\BOOKMARK [0][-]{MUTESCHAPTER.7.0}{\376\377\000S\000u\000m\000\341\000r\000i\000o}{}% 7
\BOOKMARK [0][-]{CHAPTER.1}{\376\377\0001\000\040\000I\000n\000t\000r\000o\000d\000u\000\347\000\343\000o}{}% 8
\BOOKMARK [1][-]{section.1.1}{\376\377\0001\000.\0001\000\040\000P\000r\000o\000b\000l\000e\000m\000a\000\040\000d\000e\000\040\000P\000e\000s\000q\000u\000i\000s\000a}{CHAPTER.1}% 9
\BOOKMARK [1][-]{section.1.2}{\376\377\0001\000.\0002\000\040\000O\000b\000j\000e\000t\000i\000v\000o\000s}{CHAPTER.1}% 10
\BOOKMARK [2][-]{subsection.1.2.1}{\376\377\0001\000.\0002\000.\0001\000\040\000O\000b\000j\000e\000t\000i\000v\000o\000\040\000G\000e\000r\000a\000l}{section.1.2}% 11
\BOOKMARK [2][-]{subsection.1.2.2}{\376\377\0001\000.\0002\000.\0002\000\040\000O\000b\000j\000e\000t\000i\000v\000o\000s\000\040\000E\000s\000p\000e\000c\000\355\000f\000i\000c\000o\000s}{section.1.2}% 12
\BOOKMARK [1][-]{section.1.3}{\376\377\0001\000.\0003\000\040\000O\000r\000g\000a\000n\000i\000z\000a\000\347\000\343\000o\000\040\000d\000o\000\040\000T\000e\000x\000t\000o}{CHAPTER.1}% 13
\BOOKMARK [0][-]{CHAPTER.2}{\376\377\0002\000\040\000R\000e\000f\000e\000r\000e\000n\000c\000i\000a\000l\000\040\000T\000e\000\363\000r\000i\000c\000o}{}% 14
\BOOKMARK [1][-]{section.2.1}{\376\377\0002\000.\0001\000\040\000A\000m\000p\000u\000t\000a\000\347\000\343\000o}{CHAPTER.2}% 15
\BOOKMARK [1][-]{section.2.2}{\376\377\0002\000.\0002\000\040\000M\000o\000t\000i\000v\000a\000\347\000\343\000o}{CHAPTER.2}% 16
\BOOKMARK [1][-]{section.2.3}{\376\377\0002\000.\0003\000\040\000J\000o\000g\000o\000s\000,\000\040\000G\000a\000m\000i\000f\000i\000c\000a\000\347\000\343\000o\000\040\000e\000\040\000J\000o\000g\000o\000s\000\040\000S\000\351\000r\000i\000o\000s}{CHAPTER.2}% 17
\BOOKMARK [1][-]{section.2.4}{\376\377\0002\000.\0004\000\040\000R\000e\000a\000l\000i\000d\000a\000d\000e\000\040\000V\000i\000r\000t\000u\000a\000l}{CHAPTER.2}% 18
\BOOKMARK [1][-]{section.2.5}{\376\377\0002\000.\0005\000\040\000I\000n\000f\000o\000r\000m\000\341\000t\000i\000c\000a\000\040\000M\000\351\000d\000i\000c\000a}{CHAPTER.2}% 19
\BOOKMARK [1][-]{section.2.6}{\376\377\0002\000.\0006\000\040\000M\000i\000c\000r\000o\000c\000o\000n\000t\000r\000o\000l\000a\000d\000o\000r\000e\000s}{CHAPTER.2}% 20
\BOOKMARK [1][-]{section.2.7}{\376\377\0002\000.\0007\000\040\000T\000r\000a\000b\000a\000l\000h\000o\000s\000\040\000C\000o\000r\000r\000e\000l\000a\000t\000o\000s}{CHAPTER.2}% 21
\BOOKMARK [2][-]{subsection.2.7.1}{\376\377\0002\000.\0007\000.\0001\000\040\000R\000u\000n\000n\000i\000n\000g\000\040\000W\000h\000e\000e\000l}{section.2.7}% 22
\BOOKMARK [2][-]{subsection.2.7.2}{\376\377\0002\000.\0007\000.\0002\000\040\000C\000y\000b\000e\000r\000C\000y\000c\000l\000e}{section.2.7}% 23
\BOOKMARK [2][-]{subsection.2.7.3}{\376\377\0002\000.\0007\000.\0003\000\040\000I\000k\000a\000p\000p}{section.2.7}% 24
\BOOKMARK [2][-]{subsection.2.7.4}{\376\377\0002\000.\0007\000.\0004\000\040\000J\000o\000g\000o\000\040\000P\000a\000r\000a\000\040\000R\000e\000a\000b\000i\000l\000i\000t\000a\000\347\000\343\000o\000\040\000d\000e\000\040\000C\000a\000d\000e\000i\000r\000a\000n\000t\000e\000s}{section.2.7}% 25
\BOOKMARK [2][-]{subsection.2.7.5}{\376\377\0002\000.\0007\000.\0005\000\040\000U\000p\000p\000e\000r\000\040\000L\000i\000m\000b\000\040\000R\000e\000h\000a\000b\000i\000l\000i\000t\000a\000t\000i\000o\000n\000\040\000G\000a\000m\000e}{section.2.7}% 26
\BOOKMARK [2][-]{subsection.2.7.6}{\376\377\0002\000.\0007\000.\0006\000\040\000C\000o\000n\000s\000i\000d\000e\000r\000a\000\347\000\365\000e\000s\000\040\000F\000i\000n\000a\000i\000s}{section.2.7}% 27
\BOOKMARK [1][-]{section.2.8}{\376\377\0002\000.\0008\000\040\000P\000r\000o\000j\000e\000t\000o\000\040\000V\000i\000c\000t\000u\000s}{CHAPTER.2}% 28
\BOOKMARK [0][-]{CHAPTER.3}{\376\377\0003\000\040\000M\000e\000t\000o\000d\000o\000l\000o\000g\000i\000a}{}% 29
\BOOKMARK [0][-]{CHAPTER.4}{\376\377\0004\000\040\000P\000r\000o\000j\000e\000t\000o\000\040\000-\000\040\000V\000i\000c\000t\000u\000s\000\040\000V\000R}{}% 30
\BOOKMARK [1][-]{section.4.1}{\376\377\0004\000.\0001\000\040\000D\000e\000s\000c\000r\000i\000\347\000\343\000o}{CHAPTER.4}% 31
\BOOKMARK [1][-]{section.4.2}{\376\377\0004\000.\0002\000\040\000M\000o\000d\000e\000l\000a\000g\000e\000m\000\040\000e\000\040\000C\000o\000n\000c\000e\000p\000\347\000\343\000o}{CHAPTER.4}% 32
\BOOKMARK [1][-]{section.4.3}{\376\377\0004\000.\0003\000\040\000D\000e\000s\000e\000n\000v\000o\000l\000v\000i\000m\000e\000n\000t\000o}{CHAPTER.4}% 33
\BOOKMARK [1][-]{section.4.4}{\376\377\0004\000.\0004\000\040\000T\000e\000s\000t\000e\000\040\000e\000\040\000V\000a\000l\000i\000d\000a\000\347\000\343\000o}{CHAPTER.4}% 34
\BOOKMARK [0][-]{CHAPTER.5}{\376\377\0005\000\040\000R\000e\000s\000u\000l\000t\000a\000d\000o\000s\000\040\000e\000\040\000C\000o\000n\000c\000l\000u\000s\000\365\000e\000s}{}% 35
\BOOKMARK [0][-]{schapter.8}{\376\377\000R\000e\000f\000e\000r\000\352\000n\000c\000i\000a\000s}{}% 36
\BOOKMARK [0][-]{CHAPTER.A}{\376\377\000A\000p\000\352\000n\000d\000i\000c\000e\000\040\000A\000\040\040\024\000\040\000D\000o\000c\000u\000m\000e\000n\000t\000o\000\040\000d\000e\000\040\000R\000e\000q\000u\000i\000s\000i\000t\000o\000s\000\040\000e\000\040\000D\000e\000s\000c\000r\000i\000\347\000\343\000o\000\040\000T\000e\000x\000t\000u\000a\000l\000\040\000d\000o\000\040\000S\000o\000f\000t\000w\000a\000r\000e}{}% 37
\BOOKMARK [0][-]{CHAPTER.B}{\376\377\000A\000p\000\352\000n\000d\000i\000c\000e\000\040\000B\000\040\040\024\000\040\000S\000p\000r\000i\000n\000t\000s}{}% 38
\BOOKMARK [0][-]{CHAPTER.C}{\376\377\000A\000p\000\352\000n\000d\000i\000c\000e\000\040\000C\000\040\040\024\000\040\000C\000a\000s\000o\000s\000\040\000d\000e\000\040\000U\000s\000o}{}% 39
\BOOKMARK [0][-]{CHAPTER.D}{\376\377\000A\000p\000\352\000n\000d\000i\000c\000e\000\040\000D\000\040\040\024\000\040\000G\000a\000m\000e\000\040\000D\000e\000s\000i\000g\000n\000\040\000D\000o\000c\000u\000m\000e\000n\000t}{}% 40
\BOOKMARK [0][-]{CHAPTER.E}{\376\377\000A\000p\000\352\000n\000d\000i\000c\000e\000\040\000E\000\040\040\024\000\040\000P\000l\000a\000y\000t\000e\000s\000t\000\040\000-\000\040\000V\000i\000c\000t\000u\000s\000\040\000V\000R}{}% 41
\BOOKMARK [0][-]{CHAPTER.F}{\376\377\000A\000p\000\352\000n\000d\000i\000c\000e\000\040\000F\000\040\040\024\000\040\000Q\000u\000e\000s\000t\000i\000o\000n\000\341\000r\000i\000o\000\040\000d\000o\000\040\000C\000o\000e\000f\000i\000c\000i\000e\000n\000t\000e\000\040\000F\000u\000n\000c\000i\000o\000n\000a\000l}{}% 42
\BOOKMARK [0][-]{CHAPTER.G}{\376\377\000A\000p\000\352\000n\000d\000i\000c\000e\000\040\000G\000\040\040\024\000\040\000F\000l\000o\000w}{}% 43
\BOOKMARK [0][-]{CHAPTER.H}{\376\377\000A\000p\000\352\000n\000d\000i\000c\000e\000\040\000H\000\040\040\024\000\040\000Q\000u\000e\000s\000t\000i\000o\000n\000\341\000r\000i\000o\000\040\000d\000e\000\040\000A\000v\000a\000l\000i\000a\000\347\000\343\000o\000\040\000-\000\040\000F\000i\000s\000i\000o\000t\000e\000r\000a\000p\000e\000u\000t\000a\000s}{}% 44
\BOOKMARK [0][-]{CHAPTER.I}{\376\377\000A\000p\000\352\000n\000d\000i\000c\000e\000\040\000I\000\040\040\024\000\040\000P\000r\000o\000t\000o\000c\000o\000l\000o\000\040\000d\000e\000\040\000E\000x\000p\000e\000r\000i\000m\000e\000n\000t\000o}{}% 45
